Nombre,Cantidad,Componente
"UCONTROLLER-MODULE",1," Arduino Uno R3"
"UWIFI-MODULE",1," Módulo Wi-Fi (ESP8266)"
"RGND-RED, RGND-GREEN, RGND-BLUE, RPIN3-RX",4,"1 kΩ Resistencia"
"DPIN13-RED",1,"Rojo LED"
"DPIN12-GREEN",1,"Verde LED"
"DPIN11-BLUE",1,"Azul LED"
"KRELAY",1," Relé DPDT"
"PPOWER-SUPPLY",1,"9 , 5  Suministro de energía"
"LLIGHT-BULB",1," Bombilla"
"RGND-RX",1,"2.2 kΩ Resistencia"
